ggplot
…
ggplot

Brian

11/3/2020

ggplot  

library(ggplot2)
midwest

## # A tibble: 437 x 28
##      PID county state  area poptotal popdensity popwhite popblack popamerindian
##    <int> <chr>  <chr> <dbl>    <int>      <dbl>    <int>    <int>         <int>
##  1   561 ADAMS  IL    0.052    66090      1271.    63917     1702            98
##  2   562 ALEXA~ IL    0.014    10626       759      7054     3496            19
##  3   563 BOND   IL    0.022    14991       681.    14477      429            35
##  4   564 BOONE  IL    0.017    30806      1812.    29344      127            46
##  5   565 BROWN  IL    0.018     5836       324.     5264      547            14
##  6   566 BUREAU IL    0.05     35688       714.    35157       50            65
##  7   567 CALHO~ IL    0.017     5322       313.     5298        1             8
##  8   568 CARRO~ IL    0.027    16805       622.    16519      111            30
##  9   569 CASS   IL    0.024    13437       560.    13384       16             8
## 10   570 CHAMP~ IL    0.058   173025      2983.   146506    16559           331
## # ... with 427 more rows, and 19 more variables: popasian <int>,
## #   popother <int>, percwhite <dbl>, percblack <dbl>, percamerindan <dbl>,
## #   percasian <dbl>, percother <dbl>, popadults <int>, perchsd <dbl>,
## #   percollege <dbl>, percprof <dbl>, poppovertyknown <int>,
## #   percpovertyknown <dbl>, percbelowpoverty <dbl>, percchildbelowpovert <dbl>,
## #   percadultpoverty <dbl>, percelderlypoverty <dbl>, inmetro <int>,
## #   category <chr>
…
pivot_longer  

economics

## # A tibble: 574 x 6
##    date         pce    pop psavert uempmed unemploy
##    <date>     <dbl>  <dbl>   <dbl>   <dbl>    <dbl>
##  1 1967-07-01  507. 198712    12.6     4.5     2944
##  2 1967-08-01  510. 198911    12.6     4.7     2945
##  3 1967-09-01  516. 199113    11.9     4.6     2958
##  4 1967-10-01  512. 199311    12.9     4.9     3143
##  5 1967-11-01  517. 199498    12.8     4.7     3066
##  6 1967-12-01  525. 199657    11.8     4.8     3018
##  7 1968-01-01  531. 199808    11.7     5.1     2878
##  8 1968-02-01  534. 199920    12.3     4.5     3001
##  9 1968-03-01  544. 200056    11.7     4.1     2877
## 10 1968-04-01  544  200208    12.3     4.6     2709
## # ... with 564 more rows

economics %>% pivot_longer(-date,names_to="type",values_to="num")

## # A tibble: 2,870 x 3
##    date       type          num
##    <date>     <chr>       <dbl>
##  1 1967-07-01 pce         507. 
##  2 1967-07-01 pop      198712  
##  3 1967-07-01 psavert      12.6
##  4 1967-07-01 uempmed       4.5
##  5 1967-07-01 unemploy   2944  
##  6 1967-08-01 pce         510. 
##  7 1967-08-01 pop      198911  
##  8 1967-08-01 psavert      12.6
##  9 1967-08-01 uempmed       4.7
## 10 1967-08-01 unemploy   2945  
## # ... with 2,860 more rows
…
